%!PS
%%BoundingBox: 0 0 500 500

newpath
50 50 moveto
400 0 rlineto
0 300 rlineto
-400 0 rlineto
closepath
0.2 setgray
fill

newpath
75 75 moveto
350 0 rlineto
0 250 rlineto
-350 0 rlineto
closepath
1 setgray
fill

newpath
125 125 moveto
250 0 rlineto
0 150 rlineto
-250 0 rlineto
closepath
0.4 setgray
fill

stroke
showpage
