\relax 
\catcode `"\active 
\select@language{polish}
\@writefile{toc}{\select@language{polish}}
\@writefile{lof}{\select@language{polish}}
\@writefile{lot}{\select@language{polish}}
\@writefile{toc}{\contentsline {section}{\numberline {1}Napisa\IeC {\'c} zorientowane r\IeC {\'o}wnanie prostej okre\IeC {\'s}lonej par\IeC {\k a} punkt\IeC {\'o}w P, Q, gdzie P=[-1,2], Q=[1,1].}{1}}
\@writefile{toc}{\contentsline {section}{\numberline {2}Wypisa\IeC {\'c} wszystkie sympleksy 2-wymiarowe dla sympleksu P\textsubscript  {0}P\textsubscript  {1}P\textsubscript  {2}P\textsubscript  {3}P\textsubscript  {4} w przestrzeni 4-wymiarowej.}{1}}
\@writefile{toc}{\contentsline {section}{\numberline {3}Sprawdzi\IeC {\'c}, czy punkt X=(2,3) nale\IeC {\.z}y do tr\IeC {\'o}jk\IeC {\k a}ta \(\Delta \)P\textsubscript  {0}P\textsubscript  {1}P\textsubscript  {2}, gdzie P\textsubscript  {0}=(0,1), P\textsubscript  {1}=(2,3), P\textsubscript  {2}=(1,4).}{2}}
\@writefile{toc}{\contentsline {section}{\numberline {4}Znale\IeC {\'z}\IeC {\'c} wsp\IeC {\'o}\IeC {\l }rz\IeC {\k e}dne barycentryczne punkt\IeC {\'o}w X=(1,1), Y=(2,6) dla tr\IeC {\'o}jk\IeC {\k a}ta \(\Delta \)P\textsubscript  {0}P\textsubscript  {1}P\textsubscript  {2}, gdzie P\textsubscript  {0}=(0,1), P\textsubscript  {1}=(2,3), P\textsubscript  {2}=(1,4).}{2}}
\@writefile{toc}{\contentsline {section}{\numberline {5}Ile jest podsympleks\IeC {\'o}w 3-wymiarowych sympleksu w przestrzeni 8-wymiarowej?}{3}}
\@writefile{toc}{\contentsline {section}{\numberline {6}Dany jest uk\IeC {\l }ad punkt\IeC {\'o}w {P\textsubscript  {0}=(-2,0), P\textsubscript  {1}=(2,4), P\textsubscript  {2}=(0,4), P\textsubscript  {3}=(1,1)}. Wyznaczy\IeC {\'c} wierzcho\IeC {\l }ki wielok\IeC {\k a}ta Voronoi V\textsubscript  {3}.}{3}}
\@writefile{toc}{\contentsline {section}{\numberline {7}Wyznaczy\IeC {\'c} okr\IeC {\k a}g przechodz\IeC {\k a}cy przez punkty P\textsubscript  {0}=(-2,0), P\textsubscript  {1}= (2,4), P\textsubscript  {2}= (0,4).}{3}}
\@writefile{toc}{\contentsline {section}{\numberline {8}Wyznaczy\IeC {\'c} sfer\IeC {\k e} przechodz\IeC {\k a}c\IeC {\k a} przez punkty P\textsubscript  {0}=(0,0,0), P\textsubscript  {1}=(1,1,0), P\textsubscript  {2}=(0,1,2), P\textsubscript  {3}=(1,2,3).}{4}}
\@writefile{toc}{\contentsline {section}{\numberline {9}Napisa\IeC {\'c} r\IeC {\'o}wnanie prostej zawieraj\IeC {\k a}cej cz\IeC {\k e}\IeC {\'s}\IeC {\'c} wsp\IeC {\'o}ln\IeC {\k a} dw\IeC {\'o}ch okr\IeC {\k e}g\IeC {\'o}w C\textsubscript  {1}=((0,1),1), C\textsubscript  {2}=((1,2),1).}{4}}
\@writefile{toc}{\contentsline {section}{\numberline {10}Napisa\IeC {\'c} r\IeC {\'o}wnanie p\IeC {\l }aszczyzny zawieraj\IeC {\k a}cej cz\IeC {\k e}\IeC {\'s}\IeC {\'c} wsp\IeC {\'o}ln\IeC {\k a} dw\IeC {\'o}ch sfer. S\textsubscript  {1}=((0,0,1),1), S\textsubscript  {2}=((1,1,1),2).}{4}}
\@writefile{toc}{\contentsline {section}{\numberline {11}Sprawdzi\IeC {\'c}, czy prosta 2x+2y-3=0 przecina p\IeC {\'o}\IeC {\l }prost\IeC {\k a} wychodz\IeC {\k a}c\IeC {\k a} z A=(1,0) oraz okre\IeC {\'s}lon\IeC {\k a} przez kierunek u=[-1,-1].}{4}}
\@writefile{toc}{\contentsline {section}{\numberline {12}Napisa\IeC {\'c} algorytm w pseudokodzie sprawdzaj\IeC {\k a}cy czy prosta Ax+By+C=0 przecina p\IeC {\'o}\IeC {\l }prost\IeC {\k a} wychodz\IeC {\k a}c\IeC {\k a} z punktu A w kierunku wektora u.}{5}}
\@writefile{toc}{\contentsline {section}{\numberline {13}Sprawdzi\IeC {\'c}, czy p\IeC {\'o}\IeC {\l }prosta wychodz\IeC {\k a}c\IeC {\k a} z A=(1,1) w kierunku wektora u=[1,1] przecina p\IeC {\'o}\IeC {\l }prost\IeC {\k a} wychodz\IeC {\k a}c\IeC {\k a} z B=(0,1) w kierunku wektora v=[-1,0].}{5}}
\@writefile{toc}{\contentsline {section}{\numberline {14}Napisa\IeC {\'c} algorytm w pseudokodzie sprawdzaj\IeC {\k a}cy, czy p\IeC {\'o}\IeC {\l }prosta wychodz\IeC {\k a}c\IeC {\k a} z A w kierunku wektora u przecina p\IeC {\'o}\IeC {\l }prost\IeC {\k a} wychodz\IeC {\k a}c\IeC {\k a} z B w kierunku wektora v.}{5}}
\@writefile{toc}{\contentsline {section}{\numberline {15}Sprawdzi\IeC {\'c}, czy prosta x-2y+5=0 przecina odcinek o ko\IeC {\'n}cach A=[0,1], B=[2,3].}{5}}
\@writefile{toc}{\contentsline {section}{\numberline {16}Napisa\IeC {\'c} algorytm w pseudokodzie sprawdzaj\IeC {\k a}cy, czy prosta Ax+By+C=0 przecina odcinek o ko\IeC {\'n}cach D, E.}{6}}
\@writefile{toc}{\contentsline {section}{\numberline {17}Sprawdzi\IeC {\'c}, czy p\IeC {\'o}\IeC {\l }prosta wychodz\IeC {\k a}ca z A=(2,3) w kierunku u=[1,-1] przecina odcinek o ko\IeC {\'n}cach B=(0,1), C=(-1,2).}{6}}
\@writefile{toc}{\contentsline {section}{\numberline {18}Wykona\IeC {\'c} algorytm w pseudokodzie sprawdzaj\IeC {\k a}cy, czy p\IeC {\'o}\IeC {\l }prosta wychodz\IeC {\k a}ca z A w kierunku wektora u przecina odcinek o ko\IeC {\'n}cach B.C.}{6}}
\@writefile{toc}{\contentsline {section}{\numberline {19}Sprawdzi\IeC {\'c}, czy odcinek o ko\IeC {\'n}cach A=(1,1), B=(3,4) przecina odcinek o ko\IeC {\'n}cach B=(3,0), C=(2,3).}{6}}
\@writefile{toc}{\contentsline {section}{\numberline {20}Sprawdzi\IeC {\'c}, czy p\IeC {\l }aszczyzna przechodz\IeC {\k a}ca przez punkty: A=(0,1,1), B=(1,2,1), C=(0,0,3) przecina odcinek o ko\IeC {\'n}cach D=(1,2,3), E=(-2,0,1).}{7}}
\citation{*}
\@writefile{toc}{\contentsline {section}{\numberline {21}Wykona\IeC {\'c} triangulacj\IeC {\k e} wielok\IeC {\k a}ta monotonicznego: {(4,0), (1,4), (0,3), (0,3), (-2,0), (3,-2)}. Punkty podane s\IeC {\k a} w kolejno\IeC {\'s}ci zgodnej z dodatnim obiegem wzgl\IeC {\k e}dem wielok\IeC {\k a}ta.}{8}}
\@writefile{toc}{\contentsline {section}{\numberline {22}Wykona\IeC {\'c} algorytm w pseudokodzie sprawdzaj\IeC {\k a}cy, czy dane dwa odcinki przecinaj\IeC {\k a} si\IeC {\k e}.}{8}}
\@writefile{toc}{\contentsline {section}{\numberline {23}Znale\IeC {\'z}\IeC {\'c} otoczk\IeC {\k e} wypuk\IeC {\l }\IeC {\k a} uk\IeC {\l }adu punkt\IeC {\'o}w: {(0,0),(1,0),(2,4),(1,1)}.}{8}}
