\relax 
\catcode `"\active 
\bibstyle{alpha}
\select@language{polish}
\@writefile{toc}{\select@language{polish}}
\@writefile{lof}{\select@language{polish}}
\@writefile{lot}{\select@language{polish}}
\@writefile{toc}{\contentsline {section}{\numberline {1}Aproksymacja Lagrange'a 4 stopnia}{1}}
\@writefile{toc}{\contentsline {subsection}{\numberline {1.1}Realizacja zadania}{1}}
\@writefile{lof}{\contentsline {figure}{\numberline {1}{\ignorespaces Wykres funkcji f(x) wraz z jej interpolantem}}{1}}
\newlabel{fig:lagrange}{{1}{1}}
\@writefile{lof}{\contentsline {figure}{\numberline {2}{\ignorespaces Wykres zale\IeC {\.z}no\IeC {\'s}ci log\textsubscript  {10}(b\IeC {\l }\IeC {\k a}d) od n}}{2}}
\newlabel{fig:lagrange_error}{{2}{2}}
\@writefile{toc}{\contentsline {subsection}{\numberline {1.2}Wniosek}{2}}
\@writefile{toc}{\contentsline {section}{\numberline {2}Metoda trapez\IeC {\'o}w/metoda Simpsona}{2}}
\@writefile{toc}{\contentsline {subsection}{\numberline {2.1}Realizacja zadania}{2}}
\@writefile{lof}{\contentsline {figure}{\numberline {3}{\ignorespaces Wykres zale\IeC {\.z}no\IeC {\'s}ci log\textsubscript  {10}(b\IeC {\l }\IeC {\k a}d) od log\textsubscript  {10}(n)}}{2}}
\newlabel{fig:zad2}{{3}{2}}
\@writefile{toc}{\contentsline {section}{\numberline {3}Metoda Eulera / Metoda bisekcji/ Metoda Newtona}{3}}
\@writefile{toc}{\contentsline {subsection}{\numberline {3.1}Realizacja zadania}{3}}
\@writefile{lof}{\contentsline {figure}{\numberline {4}{\ignorespaces Wykres zale\IeC {\.z}no\IeC {\'s}ci log\textsubscript  {|x-x\textsubscript  {n}|}(b\IeC {\l }\IeC {\k a}d) od n}}{3}}
\newlabel{fig:zad3}{{4}{3}}
\@writefile{toc}{\contentsline {section}{\numberline {4}Metoda iteracyjna Jacobiego / Metoda Gaussa-Seidela}{3}}
\@writefile{toc}{\contentsline {subsection}{\numberline {4.1}Realizacja zadania}{3}}
\@writefile{lof}{\contentsline {figure}{\numberline {5}{\ignorespaces Wykres zale\IeC {\.z}no\IeC {\'s}ci log\textsubscript  {b\IeC {\l }\IeC {\k a}d} od n}}{3}}
\newlabel{fig:zad4}{{5}{3}}
\citation{*}
\bibdata{t}
\@writefile{toc}{\contentsline {section}{\numberline {5}Warto\IeC {\'s}ci w\IeC {\l }asne macierzy symetrycznej}{4}}
\@writefile{toc}{\contentsline {subsection}{\numberline {5.1}Realizacja zadania}{4}}
\@writefile{toc}{\contentsline {section}{\numberline {6}Metoda pot\IeC {\k e}gowa oraz odwrotna metoda pot\IeC {\k e}gowa}{4}}
\@writefile{toc}{\contentsline {subsection}{\numberline {6.1}Realizacja zadania}{4}}
